TEK0001.CSV

Record Length,1.024000e+03,,          0.00000, -45.38970,
Sample Interval,4.932134e+01,,         49.32134, -48.18970,
Trigger Point,0.000000000000e+00,,         98.64268, -56.58970,
,,,        147.96402, -56.98970,
,,,        197.28535, -56.58970,
,,,        246.60669, -56.58970,
Source,MATH,,        295.92803, -56.18970,
Vertical Units,dB,,        345.24937, -55.78970,
Vertical Scale,1.000000e+01,,        394.57071, -54.98970,
Vertical Offset,0.000000e+00,,        443.89205, -54.98970,
Horizontal Units,Hz,,        493.21338, -54.58970,
Horizontal Scale,5.050505e+03,,        542.53472, -53.38970,
Pt Fmt,Y,,        591.85606, -52.58970,
Yzero,-4.698970e+01,,        641.17740, -52.58970,
Probe Atten,0.000000e+00,,        690.49874, -52.18970,
Firmware Version,FV:v6.08,,        739.82008, -51.38970,
,,,789.14142, -48.98970,
,,,838.46276, -44.98970,
,,,887.78410, -45.38970,
,,,937.10544, -50.98970,
,,,986.42678, -64.18970,
,,,1035.74812, -59.78970,
,,,1085.06946, -57.38970,
,,,1134.39080, -57.38970,
,,,1183.71214, -56.18970,
,,,1233.03348, -51.78970,
,,,1282.35482, -49.38970,
,,,1331.67616, -49.38970,
,,,1380.99750, -50.98970,
,,,1430.31884, -52.98970,
,,,1479.64018, -52.18970,
,,,1528.96152, -50.18970,
,,,1578.28286, -49.78970,
,,,1627.60420, -48.98970,
,,,1676.92554, -47.38970,
,,,1726.24688, -46.58970,
,,,1775.56822, -45.78970,
,,,1824.88956, -45.78970,
,,,1874.21090, -45.78970,
,,,1923.53224, -44.98970,
,,,1972.85358, -44.18970,
,,,2022.17492, -43.38970,
,,,2071.49626, -42.98970,
,,,2120.81760, -41.78970,
,,,2170.13894, -40.18970,
,,,2219.46028, -39.78970,
,,,2268.78162, -40.58970,
,,,2318.10296, -41.78970,
,,,2367.42430, -42.98970,
,,,2416.74564, -43.78970,
,,,2466.06698, -44.18970,
,,,2515.38832, -44.58970,
,,,2564.70966, -45.78970,
,,,2614.03100, -46.18970,
,,,2663.35234, -45.78970,
,,,2712.67368, -46.18970,
,,,2761.99502, -46.98970,
,,,2811.31636, -48.18970,
,,,2860.63770, -47.78970,
,,,2909.95904, -46.18970,
,,,2959.28038, -45.78970,
,,,3008.60172, -46.98970,
,,,3057.92306, -51.78970,
,,,3107.24440, -64.58970,
,,,3156.56574, -55.78970,
,,,3205.88708, -51.38970,
,,,3255.20842, -48.58970,
,,,3304.52976, -46.58970,
,,,3353.85110, -45.78970,
,,,3403.17244, -45.78970,
,,,3452.49378, -46.18970,
,,,3501.81512, -46.98970,
,,,3551.13646, -47.78970,
,,,3600.45780, -48.18970,
,,,3649.77914, -48.58970,
,,,3699.10048, -48.58970,
,,,3748.42182, -48.58970,
,,,3797.74316, -48.58970,
,,,3847.06450, -48.18970,
,,,3896.38584, -47.78970,
,,,3945.70718, -46.18970,
,,,3995.02852, -44.98970,
,,,4044.34986, -44.98970,
,,,4093.67120, -45.38970,
,,,4142.99254, -46.18970,
,,,4192.31388, -46.98970,
,,,4241.63522, -46.58970,
,,,4290.95656, -45.78970,
,,,4340.27790, -44.98970,
,,,4389.59924, -44.58970,
,,,4438.92058, -44.58970,
,,,4488.24192, -44.58970,
,,,4537.56326, -44.98970,
,,,4586.88460, -45.38970,
,,,4636.20594, -45.38970,
,,,4685.52728, -45.78970,
,,,4734.84862, -46.18970,
,,,4784.16996, -46.18970,
,,,4833.49130, -45.78970,
,,,4882.81264, -46.18970,
,,,4932.13398, -47.78970,
,,,4981.45532, -48.58970,
,,,5030.77666, -48.18970,
,,,5080.09800, -46.98970,
,,,5129.41934, -46.58970,
,,,5178.74068, -46.58970,
,,,5228.06202, -46.58970,
,,,5277.38336, -46.98970,
,,,5326.70470, -47.38970,
,,,5376.02604, -46.58970,
,,,5425.34738, -44.58970,
,,,5474.66872, -39.78970,
,,,5523.99006, -37.38970,
,,,5573.31140, -38.18970,
,,,5622.63274, -42.18970,
,,,5671.95408, -47.38970,
,,,5721.27542, -50.98970,
,,,5770.59676, -52.18970,
,,,5819.91810, -53.38970,
,,,5869.23944, -52.58970,
,,,5918.56078, -50.98970,
,,,5967.88212, -50.98970,
,,,6017.20346, -52.58970,
,,,6066.52480, -54.58970,
,,,6115.84614, -57.78970,
,,,6165.16748, -61.38970,
,,,6214.48882, -60.18970,
,,,6263.81016, -58.58970,
,,,6313.13150, -58.58970,
,,,6362.45284, -58.98970,
,,,6411.77418, -58.18970,
,,,6461.09552, -57.78970,
,,,6510.41686, -56.18970,
,,,6559.73820, -54.18970,
,,,6609.05954, -53.38970,
,,,6658.38088, -52.98970,
,,,6707.70222, -53.78970,
,,,6757.02356, -54.98970,
,,,6806.34490, -56.18970,
,,,6855.66624, -56.18970,
,,,6904.98758, -55.38970,
,,,6954.30892, -54.98970,
,,,7003.63026, -54.18970,
,,,7052.95160, -53.78970,
,,,7102.27294, -53.38970,
,,,7151.59428, -53.78970,
,,,7200.91562, -53.78970,
,,,7250.23696, -53.78970,
,,,7299.55830, -53.38970,
,,,7348.87964, -52.98970,
,,,7398.20098, -53.78970,
,,,7447.52232, -53.78970,
,,,7496.84366, -52.58970,
,,,7546.16500, -52.18970,
,,,7595.48634, -52.98970,
,,,7644.80768, -54.18970,
,,,7694.12902, -56.98970,
,,,7743.45036, -62.58970,
,,,7792.77170, -64.18970,
,,,7842.09304, -61.78970,
,,,7891.41438, -60.98970,
,,,7940.73572, -60.98970,
,,,7990.05706, -62.58970,
,,,8039.37840, -64.58970,
,,,8088.69974, -66.18970,
,,,8138.02108, -67.38970,
,,,8187.34242, -67.78970,
,,,8236.66376, -69.38970,
,,,8285.98510, -69.38970,
,,,8335.30644, -66.98970,
,,,8384.62778, -65.78970,
,,,8433.94912, -63.78970,
,,,8483.27046, -60.98970,
,,,8532.59180, -60.18970,
,,,8581.91314, -62.58970,
,,,8631.23448, -66.98970,
,,,8680.55582, -67.38970,
,,,8729.87716, -67.38970,
,,,8779.19850, -65.78970,
,,,8828.51984, -64.58970,
,,,8877.84118, -64.98970,
,,,8927.16252, -65.38970,
,,,8976.48386, -65.38970,
,,,9025.80520, -64.18970,
,,,9075.12654, -62.98970,
,,,9124.44788, -61.78970,
,,,9173.76922, -60.98970,
,,,9223.09056, -61.78970,
,,,9272.41190, -62.98970,
,,,9321.73324, -62.98970,
,,,9371.05458, -63.78970,
,,,9420.37592, -63.38970,
,,,9469.69726, -62.58970,
,,,9519.01860, -62.18970,
,,,9568.33994, -61.78970,
,,,9617.66128, -61.78970,
,,,9666.98262, -61.78970,
,,,9716.30396, -62.18970,
,,,9765.62530, -62.58970,
,,,9814.94664, -62.18970,
,,,9864.26798, -62.18970,
,,,9913.58932, -61.38970,
,,,9962.91066, -61.38970,
,,,10012.23200, -61.38970,
,,,10061.55334, -60.98970,
,,,10110.87468, -61.38970,
,,,10160.19602, -61.78970,
,,,10209.51736, -61.38970,
,,,10258.83870, -61.38970,
,,,10308.16004, -61.38970,
,,,10357.48138, -60.98970,
,,,10406.80272, -61.38970,
,,,10456.12406, -60.98970,
,,,10505.44540, -60.98970,
,,,10554.76674, -60.98970,
,,,10604.08808, -60.98970,
,,,10653.40942, -60.58970,
,,,10702.73076, -60.58970,
,,,10752.05210, -60.58970,
,,,10801.37344, -60.58970,
,,,10850.69478, -60.58970,
,,,10900.01612, -60.58970,
,,,10949.33746, -60.18970,
,,,10998.65880, -60.18970,
,,,11047.98014, -60.18970,
,,,11097.30148, -60.98970,
,,,11146.62282, -61.78970,
,,,11195.94416, -62.18970,
,,,11245.26550, -62.18970,
,,,11294.58684, -62.58970,
,,,11343.90818, -62.58970,
,,,11393.22952, -62.58970,
,,,11442.55086, -62.98970,
,,,11491.87220, -62.58970,
,,,11541.19354, -62.18970,
,,,11590.51488, -62.18970,
,,,11639.83622, -62.58970,
,,,11689.15756, -62.58970,
,,,11738.47890, -62.58970,
,,,11787.80024, -62.98970,
,,,11837.12158, -62.98970,
,,,11886.44292, -62.58970,
,,,11935.76426, -62.98970,
,,,11985.08560, -62.58970,
,,,12034.40694, -62.98970,
,,,12083.72828, -62.98970,
,,,12133.04962, -62.98970,
,,,12182.37096, -62.58970,
,,,12231.69230, -62.98970,
,,,12281.01364, -63.38970,
,,,12330.33498, -63.78970,
,,,12379.65632, -63.78970,
,,,12428.97766, -64.18970,
,,,12478.29900, -63.38970,
,,,12527.62034, -63.38970,
,,,12576.94168, -63.38970,
,,,12626.26302, -63.38970,
,,,12675.58436, -62.98970,
,,,12724.90570, -63.78970,
,,,12774.22704, -64.58970,
,,,12823.54838, -64.18970,
,,,12872.86972, -64.58970,
,,,12922.19106, -64.98970,
,,,12971.51240, -64.98970,
,,,13020.83374, -65.38970,
,,,13070.15508, -65.38970,
,,,13119.47642, -65.38970,
,,,13168.79776, -65.38970,
,,,13218.11910, -65.78970,
,,,13267.44044, -66.18970,
,,,13316.76178, -66.18970,
,,,13366.08312, -64.98970,
,,,13415.40446, -64.98970,
,,,13464.72580, -65.78970,
,,,13514.04714, -65.78970,
,,,13563.36848, -66.58970,
,,,13612.68982, -66.98970,
,,,13662.01116, -67.38970,
,,,13711.33250, -66.58970,
,,,13760.65384, -66.18970,
,,,13809.97518, -66.58970,
,,,13859.29652, -66.18970,
,,,13908.61786, -65.78970,
,,,13957.93920, -65.38970,
,,,14007.26054, -64.58970,
,,,14056.58188, -64.18970,
,,,14105.90322, -64.18970,
,,,14155.22456, -64.98970,
,,,14204.54590, -65.38970,
,,,14253.86724, -65.78970,
,,,14303.18858, -65.78970,
,,,14352.50992, -65.78970,
,,,14401.83126, -65.78970,
,,,14451.15260, -66.18970,
,,,14500.47394, -66.58970,
,,,14549.79528, -68.58970,
,,,14599.11662, -72.58970,
,,,14648.43796, -72.98970,
,,,14697.75930, -70.98970,
,,,14747.08064, -69.78970,
,,,14796.40198, -70.98970,
,,,14845.72332, -71.78970,
,,,14895.04466, -71.78970,
,,,14944.36600, -71.78970,
,,,14993.68734, -72.98970,
,,,15043.00868, -73.78970,
,,,15092.33002, -72.58970,
,,,15141.65136, -73.38970,
,,,15190.97270, -72.98970,
,,,15240.29404, -72.98970,
,,,15289.61538, -72.18970,
,,,15338.93672, -73.78970,
,,,15388.25806, -72.18970,
,,,15437.57940, -70.98970,
,,,15486.90074, -71.38970,
,,,15536.22208, -73.38970,
,,,15585.54342, -76.98970,
,,,15634.86476, -74.98970,
,,,15684.18610, -74.18970,
,,,15733.50744, -72.18970,
,,,15782.82878, -73.38970,
,,,15832.15012, -73.78970,
,,,15881.47146, -73.78970,
,,,15930.79280, -74.98970,
,,,15980.11414, -73.78970,
,,,16029.43548, -74.98970,
,,,16078.75682, -72.18970,
,,,16128.07816, -72.18970,
,,,16177.39950, -72.58970,
,,,16226.72084, -74.98970,
,,,16276.04218, -76.98970,
,,,16325.36352, -72.98970,
,,,16374.68486, -71.38970,
,,,16424.00620, -71.78970,
,,,16473.32754, -71.78970,
,,,16522.64888, -72.58970,
,,,16571.97022, -72.58970,
,,,16621.29156, -72.98970,
,,,16670.61290, -72.58970,
,,,16719.93424, -72.58970,
,,,16769.25558, -71.38970,
,,,16818.57692, -72.58970,
,,,16867.89826, -72.98970,
,,,16917.21960, -72.98970,
,,,16966.54094, -73.38970,
,,,17015.86228, -78.18970,
,,,17065.18362, -83.78970,
,,,17114.50496, -83.78970,
,,,17163.82630, -79.78970,
,,,17213.14764, -79.78970,
,,,17262.46898, -85.78970,
,,,17311.79032, -81.78970,
,,,17361.11166, -79.78970,
,,,17410.43300, -80.98970,
,,,17459.75434, -78.98970,
,,,17509.07568, -77.38970,
,,,17558.39702, -78.98970,
,,,17607.71836, -83.38970,
,,,17657.03970, -85.78970,
,,,17706.36104, -85.78970,
,,,17755.68238, -85.78970,
,,,17805.00372, -80.58970,
,,,17854.32506, -78.98970,
,,,17903.64640, -80.98970,
,,,17952.96774, -82.98970,
,,,18002.28908, -78.18970,
,,,18051.61042, -78.18970,
,,,18100.93176, -80.58970,
,,,18150.25310, -80.98970,
,,,18199.57444, -80.58970,
,,,18248.89578, -81.78970,
,,,18298.21712, -80.58970,
,,,18347.53846, -81.78970,
,,,18396.85980, -81.78970,
,,,18446.18114, -82.98970,
,,,18495.50248, -85.78970,
,,,18544.82382, -83.78970,
,,,18594.14516, -85.78970,
,,,18643.46650, -85.78970,
,,,18692.78784, -86.98970,
,,,18742.10918, -83.38970,
,,,18791.43052, -83.78970,
,,,18840.75186, -82.98970,
,,,18890.07320, -86.98970,
,,,18939.39454, -86.98970,
,,,18988.71588, -85.78970,
,,,19038.03722, -74.18970,
,,,19087.35856, -71.78970,
,,,19136.67990, -76.98970,
,,,19186.00124, -81.78970,
,,,19235.32258, -83.38970,
,,,19284.64392, -85.78970,
,,,19333.96526, -86.98970,
,,,19383.28660, -86.98970,
,,,19432.60794, -86.98970,
,,,19481.92928, -82.98970,
,,,19531.25062, -86.98970,
,,,19580.57196, -85.78970,
,,,19629.89330, -79.78970,
,,,19679.21464, -80.58970,
,,,19728.53598, -82.98970,
,,,19777.85732, -85.78970,
,,,19827.17866, -83.78970,
,,,19876.50000, -82.98970,
,,,19925.82134, -80.58970,
,,,19975.14268, -81.78970,
,,,20024.46402, -86.98970,
,,,20073.78536, -85.78970,
,,,20123.10670, -81.78970,
,,,20172.42804, -80.98970,
,,,20221.74938, -78.98970,
,,,20271.07072, -77.38970,
,,,20320.39206, -80.58970,
,,,20369.71340, -83.38970,
,,,20419.03474, -83.38970,
,,,20468.35608, -83.38970,
,,,20517.67742, -83.38970,
,,,20566.99876, -82.98970,
,,,20616.32010, -81.78970,
,,,20665.64144, -79.78970,
,,,20714.96278, -78.98970,
,,,20764.28412, -78.98970,
,,,20813.60546, -80.58970,
,,,20862.92680, -81.78970,
,,,20912.24814, -81.78970,
,,,20961.56948, -83.78970,
,,,21010.89082, -81.78970,
,,,21060.21216, -81.78970,
,,,21109.53350, -85.78970,
,,,21158.85484, -85.78970,
,,,21208.17618, -80.58970,
,,,21257.49752, -76.98970,
,,,21306.81886, -77.78970,
,,,21356.14020, -76.58970,
,,,21405.46154, -76.98970,
,,,21454.78288, -80.58970,
,,,21504.10422, -78.98970,
,,,21553.42556, -78.98970,
,,,21602.74690, -79.78970,
,,,21652.06824, -78.98970,
,,,21701.38958, -79.78970,
,,,21750.71092, -80.58970,
,,,21800.03226, -78.18970,
,,,21849.35360, -72.98970,
,,,21898.67494, -70.58970,
,,,21947.99628, -74.18970,
,,,21997.31762, -74.98970,
,,,22046.63896, -75.78970,
,,,22095.96030, -75.78970,
,,,22145.28164, -74.98970,
,,,22194.60298, -74.98970,
,,,22243.92432, -76.58970,
,,,22293.24566, -75.78970,
,,,22342.56700, -76.98970,
,,,22391.88834, -74.98970,
,,,22441.20968, -76.98970,
,,,22490.53102, -76.58970,
,,,22539.85236, -76.58970,
,,,22589.17370, -78.98970,
,,,22638.49504, -80.58970,
,,,22687.81638, -78.18970,
,,,22737.13772, -76.98970,
,,,22786.45906, -76.98970,
,,,22835.78040, -77.38970,
,,,22885.10174, -75.38970,
,,,22934.42308, -75.38970,
,,,22983.74442, -76.58970,
,,,23033.06576, -76.98970,
,,,23082.38710, -76.58970,
,,,23131.70844, -77.78970,
,,,23181.02978, -75.78970,
,,,23230.35112, -74.98970,
,,,23279.67246, -74.98970,
,,,23328.99380, -74.98970,
,,,23378.31514, -76.58970,
,,,23427.63648, -76.58970,
,,,23476.95782, -74.18970,
,,,23526.27916, -74.98970,
,,,23575.60050, -75.78970,
,,,23624.92184, -77.38970,
,,,23674.24318, -77.38970,
,,,23723.56452, -75.78970,
,,,23772.88586, -76.58970,
,,,23822.20720, -77.78970,
,,,23871.52854, -77.78970,
,,,23920.84988, -77.78970,
,,,23970.17122, -78.98970,
,,,24019.49256, -78.98970,
,,,24068.81390, -76.98970,
,,,24118.13524, -75.38970,
,,,24167.45658, -75.38970,
,,,24216.77792, -76.58970,
,,,24266.09926, -76.98970,
,,,24315.42060, -77.38970,
,,,24364.74194, -76.18970,
,,,24414.06328, -78.18970,
,,,24463.38462, -76.58970,
,,,24512.70596, -75.78970,
,,,24562.02730, -75.78970,
,,,24611.34864, -76.58970,
,,,24660.66998, -77.78970,
,,,24709.99132, -79.78970,
,,,24759.31266, -77.78970,
,,,24808.63400, -78.98970,
,,,24857.95534, -79.78970,
,,,24907.27668, -79.78970,
,,,24956.59802, -77.38970,
,,,25005.91936, -76.18970,
,,,25055.24070, -76.98970,
,,,25104.56204, -80.58970,
,,,25153.88338, -78.98970,
,,,25203.20472, -78.98970,
,,,25252.52606, -78.98970,
,,,25301.84740, -77.78970,
,,,25351.16874, -78.98970,
,,,25400.49008, -79.78970,
,,,25449.81142, -76.98970,
,,,25499.13276, -76.58970,
,,,25548.45410, -74.98970,
,,,25597.77544, -75.78970,
,,,25647.09678, -75.78970,
,,,25696.41812, -77.78970,
,,,25745.73946, -78.98970,
,,,25795.06080, -76.18970,
,,,25844.38214, -74.98970,
,,,25893.70348, -77.38970,
,,,25943.02482, -78.18970,
,,,25992.34616, -74.98970,
,,,26041.66750, -74.98970,
,,,26090.98884, -75.38970,
,,,26140.31018, -77.78970,
,,,26189.63152, -76.98970,
,,,26238.95286, -76.98970,
,,,26288.27420, -77.78970,
,,,26337.59554, -79.78970,
,,,26386.91688, -78.18970,
,,,26436.23822, -77.78970,
,,,26485.55956, -79.78970,
,,,26534.88090, -86.98970,
,,,26584.20224, -83.38970,
,,,26633.52358, -80.58970,
,,,26682.84492, -82.98970,
,,,26732.16626, -80.58970,
,,,26781.48760, -78.98970,
,,,26830.80894, -78.98970,
,,,26880.13028, -78.98970,
,,,26929.45162, -81.78970,
,,,26978.77296, -81.78970,
,,,27028.09430, -78.98970,
,,,27077.41564, -77.78970,
,,,27126.73698, -76.98970,
,,,27176.05832, -78.98970,
,,,27225.37966, -80.98970,
,,,27274.70100, -82.98970,
,,,27324.02234, -82.98970,
,,,27373.34368, -82.98970,
,,,27422.66502, -80.98970,
,,,27471.98636, -80.98970,
,,,27521.30770, -83.38970,
,,,27570.62904, -80.98970,
,,,27619.95038, -80.58970,
,,,27669.27172, -81.78970,
,,,27718.59306, -83.78970,
,,,27767.91440, -83.78970,
,,,27817.23574, -85.78970,
,,,27866.55708, -82.98970,
,,,27915.87842, -80.58970,
,,,27965.19976, -78.98970,
,,,28014.52110, -78.18970,
,,,28063.84244, -78.98970,
,,,28113.16378, -78.98970,
,,,28162.48512, -83.38970,
,,,28211.80646, -74.98970,
,,,28261.12780, -70.58970,
,,,28310.44914, -81.78970,
,,,28359.77048, -85.78970,
,,,28409.09182, -85.78970,
,,,28458.41316, -83.38970,
,,,28507.73450, -85.78970,
,,,28557.05584, -83.78970,
,,,28606.37718, -79.78970,
,,,28655.69852, -81.78970,
,,,28705.01986, -85.78970,
,,,28754.34120, -85.78970,
,,,28803.66254, -83.78970,
,,,28852.98388, -81.78970,
,,,28902.30522, -82.98970,
,,,28951.62656, -83.38970,
,,,29000.94790, -86.98970,
,,,29050.26924, -86.98970,
,,,29099.59058, -86.98970,
,,,29148.91192, -85.78970,
,,,29198.23326, -86.98970,
,,,29247.55460, -86.98970,
,,,29296.87594, -86.98970,
,,,29346.19728, -86.98970,
,,,29395.51862, -80.98970,
,,,29444.83996, -80.98970,
,,,29494.16130, -82.98970,
,,,29543.48264, -83.78970,
,,,29592.80398, -86.98970,
,,,29642.12532, -86.98970,
,,,29691.44666, -86.98970,
,,,29740.76800, -86.98970,
,,,29790.08934, -86.98970,
,,,29839.41068, -86.98970,
,,,29888.73202, -82.98970,
,,,29938.05336, -80.58970,
,,,29987.37470, -85.78970,
,,,30036.69604, -86.98970,
,,,30086.01738, -85.78970,
,,,30135.33872, -86.98970,
,,,30184.66006, -86.98970,
,,,30233.98140, -83.78970,
,,,30283.30274, -86.98970,
,,,30332.62408, -86.98970,
,,,30381.94542, -86.98970,
,,,30431.26676, -86.98970,
,,,30480.58810, -86.98970,
,,,30529.90944, -85.78970,
,,,30579.23078, -86.98970,
,,,30628.55212, -85.78970,
,,,30677.87346, -85.78970,
,,,30727.19480, -85.78970,
,,,30776.51614, -86.98970,
,,,30825.83748, -86.98970,
,,,30875.15882, -82.98970,
,,,30924.48016, -86.98970,
,,,30973.80150, -86.98970,
,,,31023.12284, -85.78970,
,,,31072.44418, -82.98970,
,,,31121.76552, -85.78970,
,,,31171.08686, -86.98970,
,,,31220.40820, -85.78970,
,,,31269.72954, -85.78970,
,,,31319.05088, -86.98970,
,,,31368.37222, -86.98970,
,,,31417.69356, -86.98970,
,,,31467.01490, -86.98970,
,,,31516.33624, -81.78970,
,,,31565.65758, -86.98970,
,,,31614.97892, -86.98970,
,,,31664.30026, -85.78970,
,,,31713.62160, -85.78970,
,,,31762.94294, -77.38970,
,,,31812.26428, -74.18970,
,,,31861.58562, -85.78970,
,,,31910.90696, -86.98970,
,,,31960.22830, -86.98970,
,,,32009.54964, -82.98970,
,,,32058.87098, -83.38970,
,,,32108.19232, -86.98970,
,,,32157.51366, -72.18970,
,,,32206.83500, -65.78970,
,,,32256.15634, -68.18970,
,,,32305.47768, -80.58970,
,,,32354.79902, -86.98970,
,,,32404.12036, -79.78970,
,,,32453.44170, -80.58970,
,,,32502.76304, -85.78970,
,,,32552.08438, -86.98970,
,,,32601.40572, -86.98970,
,,,32650.72706, -86.98970,
,,,32700.04840, -86.98970,
,,,32749.36974, -86.98970,
,,,32798.69108, -85.78970,
,,,32848.01242, -81.78970,
,,,32897.33376, -83.78970,
,,,32946.65510, -85.78970,
,,,32995.97644, -81.78970,
,,,33045.29778, -83.78970,
,,,33094.61912, -86.98970,
,,,33143.94046, -83.78970,
,,,33193.26180, -85.78970,
,,,33242.58314, -86.98970,
,,,33291.90448, -86.98970,
,,,33341.22582, -86.98970,
,,,33390.54716, -86.98970,
,,,33439.86850, -86.98970,
,,,33489.18984, -86.98970,
,,,33538.51118, -86.98970,
,,,33587.83252, -86.98970,
,,,33637.15386, -86.98970,
,,,33686.47520, -86.98970,
,,,33735.79654, -83.78970,
,,,33785.11788, -81.78970,
,,,33834.43922, -83.78970,
,,,33883.76056, -81.78970,
,,,33933.08190, -83.78970,
,,,33982.40324, -86.98970,
,,,34031.72458, -86.98970,
,,,34081.04592, -86.98970,
,,,34130.36726, -81.78970,
,,,34179.68860, -82.98970,
,,,34229.00994, -82.98970,
,,,34278.33128, -83.78970,
,,,34327.65262, -81.78970,
,,,34376.97396, -80.58970,
,,,34426.29530, -80.58970,
,,,34475.61664, -79.78970,
,,,34524.93798, -86.98970,
,,,34574.25932, -64.58970,
,,,34623.58066, -62.58970,
,,,34672.90200, -75.78970,
,,,34722.22334, -81.78970,
,,,34771.54468, -81.78970,
,,,34820.86602, -79.78970,
,,,34870.18736, -83.38970,
,,,34919.50870, -81.78970,
,,,34968.83004, -80.98970,
,,,35018.15138, -80.58970,
,,,35067.47272, -85.78970,
,,,35116.79406, -86.98970,
,,,35166.11540, -81.78970,
,,,35215.43674, -81.78970,
,,,35264.75808, -83.78970,
,,,35314.07942, -85.78970,
,,,35363.40076, -86.98970,
,,,35412.72210, -85.78970,
,,,35462.04344, -85.78970,
,,,35511.36478, -86.98970,
,,,35560.68612, -83.78970,
,,,35610.00746, -78.98970,
,,,35659.32880, -77.78970,
,,,35708.65014, -78.18970,
,,,35757.97148, -78.98970,
,,,35807.29282, -80.98970,
,,,35856.61416, -80.98970,
,,,35905.93550, -78.98970,
,,,35955.25684, -78.98970,
,,,36004.57818, -79.78970,
,,,36053.89952, -85.78970,
,,,36103.22086, -86.98970,
